{
  "cviceni": {
    "version": {
      "global": "<%= version %>",
      "content": 1
    },
    "katalog": ["test"],
    "language": "cs",
    "slug": "vojak-na-fotografii",
    "nazev": "Voják na fotografii",
    "autor": ["Petr Sedlák"],
    "casovaOsa": {
      "roky": [1943],
      "epocha": {
        "svetova": ["druhá světová válka"]
      }
    },
    "klicovaSlova": [
      "holocaust",
      "nacismus",
      "dobové perspektivy",
      "otevíráme otázku"
    ],
    "anotace": {
      "ucitel": "Cvičení se zaměřuje na osobnost Josefa Blöscheho, který se jako voják podílel za druhé světové války na vyhlazování židovského obyvatelstva. Žáci pomocí jeho výpovědi u soudu, posudku z oblasti kriminální psychologie a vzpomínek obyvatel ghetta hledají odpověď na otázku, jaké důvody vedly Bloscheho k vraždění civilistů. Cvičením lze uzavřít lekci o šoa, resp. přesměřovat téma k odpovídání, kdo byli lidé, kteří se na genocidě dobrovolně podíleli.",
      "verejna": "Není pochyb, že civilisté na fotografii jsou vyděšeni k smrti. Kdo je ale muž se zbraní v pozadí, který je s ostatními vojáky vyvedl z domu a odvádí pryč? Přečtěte si, co sám o situaci napsal po válce na zadní stranu fotografie. Prozkoumejte další doklady a rekonstruujte profil jednoho z tisíců vykonavatelů největší masové vraždy v dějinách."
    },
    "obtiznost": "vysoka",
    "trvani": 35,
    "funkce": ["lupa", "cteni", "text", "svg", "znacky"],
    "pdf": {
      "doporucenyPostup": "vojak-na-fotografii.pdf"
    },
    "uvodniObrazek": "vojak-na-fotografii/pic-00-1280w.jpg",
    "id": 95
  },
  "slajd": [
    {
      "class": ["half-slide-previous"],
      "zadani": {
        "hlavni": "Prohlédněte si fotografii.",
        "rozsirujici": ""
      },
      "napoveda": {
        "aktivity": ["lupa"],
        "text": "Při kliknutí levým tlačítkem do obrazu lupa přiblíží část obrazu ve výřezu."
      },
      "prameny": ["vojak-na-fotografii/pic-00-1280w.jpg"],
      "popisky": ["Varšava, květen 1943. Zdroj: Das Bundesarchiv"]
    },
    {
      "class": ["half-slide-active"],
      "zadani": {
        "hlavni": "Jaké pocity ve vás snímek vyvolává?",
        "rozsirujici": ""
      },
      "napoveda": {
        "aktivity": ["text"],
        "text": "Do boxu pro text zapisujete odpověď na otázku, nebo jiný komentář (dle zadání)."
      },
      "uzivatelskyText": {
        "otazky": [
          {
            "id": "otazka-1",
            "zadani": "",
            "instrukce": "Pociťuji...",
            "maxDelka": 400
          }
        ]
      }
    },
    {
      "zadani": {
        "hlavni": "Označte a popište skupiny osob, které jsou na fotografii zachyceny.",
        "rozsirujici": ""
      },
      "napoveda": {
        "aktivity": ["svg"],
        "text": "Tahem myši levým tlačítkem kreslíte do obrazu. Nakliknutím na nakreslený tvar pravým tlačítkem otevřete menu s nabídkou úkonů: změnit barvu tvaru, (T) doplnit textový komentář, (X) smazat nakliknutý objekt."
      },
      "svg": {
        "soubory": [
          {
            "id": "svg-1",
            "soubor": "vojak-na-fotografii/pic-00-1024w.jpg",
            "funkce": ["kresleni", "text"]
          }
        ]
      },
      "popisky": ["Varšava, květen 1943. Zdroj: Das Bundesarchiv"]
    },
    {
      "class": ["half-slide-previous"],
      "zadani": {
        "hlavni": "Prozkoumejte další prameny. Soustřeďte se na informace o osobnosti a roli vojáka na fotografii. Informace doplňte do fotografie červeně.",
        "rozsirujici": ""
      },
      "napoveda": {
        "aktivity": ["svg"],
        "text": "Kliknutím na snímek levým tlačítkem myši označujete bod. Nakliknutím na bod pravým tlačítkem otevřete menu s nabídkou úkonů: (T) doplnit textový komentář, (X) smazat nakliknutý objekt."
      },
      "svg": {
        "nastaveni": {
          "layout": "velka-galerie"
        },
        "galerie": [
          {
            "soubor": "vojak-na-fotografii/pic-01-1280w.jpg",
            "popisek": "Varšava, květen 1943 (Josef Blösche stojí uprostřed mezi vojáky). Zdroj: Das Bundesarchiv"
          },
          {
            "typ": "text",
            "objekt": "Byli to obyčejní Němci z malých nebo středně velkých měst, poměrně mladí, dvacet, dvacet pět let. A tito lidé směli být najednou drsní, mohli střílet, vraždit, znásilňovat. Všechno směli.",
            "popisek": "Vzpomínka Marcela Reicha-Ranického, nuceného obyvatele varšavského ghetta. Zdroj: Der SS-Mann. Josef Blösche – Leben und Sterben eines Mörders [dokumentární film], Německo 2004"
          },
          {
            "typ": "text",
            "objekt": "Soudce: Domy byly vyklízeny, Židé, mezi nimi děti, vycházeli se zdviženýma rukama. Vy jste stál s automatickou puškou proti malému chlapci, který byl vámi vyveden z budovy, ruce měl vzhůru. Jak lidé v těchto chvílích reagovali?<br>Blösche: Byli značně vystrašení.<br>Soudce: To lze dobře vidět na tomto chlapci. Jaké myšlenky vám běžely hlavou?<br>Blösche: Tenkrát, při likvidaci zbytku ghetta, člověk celkem o ničem nepřemýšlel.<br>Soudce: Váš denní chleba, žádné pohnutí ve vašem obličeji.<br>Blösche: Něco takového bylo k vidění během likvidace každý den.",
            "popisek": "Překlad části výpovědi Josefa Blösche před soudem v roce 1969. Zdroj: Heribert Schwan – Helgard Heindrichs: Der SS-Mann. Josef Blösche – Leben und Sterben eines Mörders. Mnichov 2003"
          },
          {
            "typ": "text",
            "objekt": "Posuzujeme-li strukturu osobnosti Josefa Blösche - introvertní, vnitřně nejistý (chyběly mu dobré zkušenosti), úniky k představám o své velikosti - zdá se logické, že se před válkou zapojil do organizací, které bojovaly proti existenci sudetských Němců v Československu (k nimž patřil). Blösche dostal možnost přenést svoji méněcennost na jiné. Nejdříve byl jeho obrazem nepřítele Čech, později Žid.",
            "popisek": "Redakčně upraveno. Zdroj: Heribert Schwan – Helgard Heindrichs: Der SS-Mann. Josef Blösche – Leben und Sterben eines Mörders, Mnichov 2003"
          },
          {
            "soubor": "vojak-na-fotografii/pic-02-1280w.jpg",
            "popisek": "„Osoba na fotografii v uniformě SS, s automatickou puškou a motoristickými brýlemi na helmě jsem já. Foto ukazuje mě jako příslušníka Gestapa ve Varšavském ghettu, se skupinou příslušníků SS při jedné z deportačních akcí.“ Překlad rukopisné poznámky Josefa Blösche, kterou napsal na zadní stranu fotografie den po svém zatčení v lednu 1967. Zdroj: BStU"
          },
          {
            "soubor": "vojak-na-fotografii/pic-03-1280w.jpg",
            "popisek": "Varšava, květen 1943 (Josef Blösche stojí na fotografii vpravo). Zdroj: Das Bundesarchiv"
          }
        ],
        "soubory": [
          {
            "id": "svg-2",
            "soubor": "vojak-na-fotografii/pic-00-1024w.jpg",
            "duplikovat": ["svg-1"],
            "funkce": ["text", "znacky"],
            "barvy": ["red"]
          }
        ]
      },
      "popisky": ["Varšava, květen 1943. Zdroj: Das Bundesarchiv"]
    },
    {
      "class": "half-slide-active",
      "zadani": {
        "hlavni": "Co mohlo podle vás mít vliv na jednání Josefa Blösche?",
        "rozsirujici": "Pomocí zvětšování a zmenšování určete význam jednotlivých důvodů."
      },
      "napoveda": {
        "aktivity": ["word-cloud"],
        "text": "Klikáním na znaménka -/+ zmenšujte či zdůrazňujte důležitost."
      },
      "klicovaSlova": {
        "klicovaSlova": [
          {
            "id": "klicova-slova-1",
            "funkce": "wordcloud",
            "tagy": [
              {
                "text": "vědomí beztrestnosti"
              },
              {
                "text": "plnění rozkazu"
              },
              {
                "text": "pohrdání Židy jako podřadnou rasou"
              },
              {
                "text": "potěšení z utrpení druhých (sadismus)"
              },
              {
                "text": "otupělost k násilí"
              },
              {
                "text": "silné sebevědomí"
              },
              {
                "text": "prostředí ghetta"
              },
              {
                "text": "dřívější účast na zabíjení"
              },
              {
                "text": "strach o vlastní život"
              },
              {
                "text": "pomsta za padlé spolubojovníky"
              }
            ]
          }
        ]
      }
    },
    {
      "zadani": {
        "hlavni": "Co ovlivnilo jednání Josefa Blösche?",
        "rozsirujici": ""
      },
      "napoveda": {
        "aktivity": ["text"],
        "text": "Do boxu pro text zapisujete odpověď na otázku, nebo jiný komentář (dle zadání)."
      },
      "uzivatelskyText": {
        "layout": "velka-galerie",
        "galerie": [
          {
            "typ": "svg",
            "objekt": {
              "id": "svg-3",
              "soubor": "vojak-na-fotografii/pic-00-1024w.jpg",
              "duplikovat": ["svg-2"]
            },
            "popisek": "Varšava, květen 1943. Zdroj: Das Bundesarchiv"
          }
        ],
        "otazky": [
          {
            "id": "otazka-2",
            "zadani": "Osvětlete, které důvody jste zvýraznili na předchozím slidu a proč.",
            "instrukce": "Myslím si, že…",
            "maxDelka": 400
          },
          {
            "id": "otazka-3",
            "zadani": "Co dalšího byste potřebovali vědět, abyste lépe porozuměli jeho jednání?",
            "instrukce": "Myslím si, že…",
            "maxDelka": 400
          }
        ]
      }
    }
  ]
}
