{
  "cviceni": {
    "version": {
      "global": "<%= version %>",
      "content": 1
    },
    "language": "cs",
    "katalog": ["test"],
    "slug": "k-cemu-slouzi-siti",
    "nazev": "K čemu slouží šití?",
    "autor": ["Václav Sixta"],
    "casovaOsa": {
      "roky": [1900],
      "epocha": {
        "ceska": ["habsburská monarchie a její rozpad"]
      }
    },
    "klicovaSlova": [
      "moderní způsob života",
      "plakát",
      "technologie a společnost",
      "trvání a změna",
      "uspořádáváme zdroje"
    ],
    "anotace": {
      "ucitel": "Cvičení ukazuje šití na stroji v různých kulturních a politických kontextech. Žáci srovnávají čtyři odlišné obrazy šití a zamýšlí se nad významy, které jsou s touto činností spojovány. Cvičení umožňuje jak zamyslet se nad společenským rozměrem dějin každodennosti, tak rozvíjet kompetence žáků interpretovat plakát.",
      "verejna": "Lze šitím vyhrát válku? Porovnejte plakáty a všímejte si, v jakých souvislostech se objevuje šití a šicí stroj. "
    },
    "obtiznost": "lehka",
    "trvani": 35,
    "funkce": ["lupa", "text", "svg", "znacky"],
    "pdf": {
      "doporucenyPostup": "k-cemu-slouzi-siti.pdf"
    },
    "uvodniObrazek": "k-cemu-slouzi-siti/pic-00-1024h.jpg",
    "id": 98
  },
  "slajd": [
    {
      "zadani": {
        "hlavni": "Prohlédněte si plakáty.",
        "rozsirujici": ""
      },
      "napoveda": {
        "aktivity": ["lupa"],
        "text": "Při kliknutí levým tlačítkem do obrazu lupa přiblíží část obrazu ve výřezu."
      },
      "prameny": [
        "k-cemu-slouzi-siti/pic-00-1024h.jpg",
        "k-cemu-slouzi-siti/pic-01-1024h.jpg",
        "k-cemu-slouzi-siti/pic-02-1024h.jpg",
        "k-cemu-slouzi-siti/pic-03-1024h.jpg"
      ]
    },
    {
      "class": ["half-slide-previous"],
      "zadani": {
        "hlavni": "Jak plakát zobrazuje šití?",
        "rozsirujici": "Prohlédněte si plakát, označte důležité body a popište je."
      },
      "napoveda": {
        "aktivity": ["svg"],
        "text": [
          "Kliknutím na snímek levým tlačítkem myši označujete bod. Nakliknutím na bod pravým tlačítkem otevřete menu s nabídkou úkonů: změnit barvu bodu, (T) doplnit textový komentář, (X) smazat nakliknutý objekt."
        ]
      },
      "svg": {
        "soubory": [
          {
            "id": "svg-1",
            "soubor": "k-cemu-slouzi-siti/pic-00-1024h.jpg",
            "funkce": ["text", "znacky"]
          }
        ]
      },
      "popisky": [
        "Nejlepší šicí stroj na světě jest Dürkoppův [chromolitografie], kolem 1900. Zdroj: UPM Praha"
      ]
    },
    {
      "class": ["half-slide-active"],
      "zadani": {
        "hlavni": "S čím plakát spojuje šití?",
        "rozsirujici": "Vyberte maximálně tři slova, která nejlépe vystihují plakát."
      },
      "napoveda": {
        "aktivity": ["tagy"],
        "text": "Kliknutím můžete klíčové slovo přidat. Pokud po přidání kliknete na klíčové slovo, znovu ho odeberete."
      },
      "klicovaSlova": {
        "klicovaSlova": [
          {
            "id": "klicova-slova-1",
            "funkce": "selekce+",
            "tagy": [
              {
                "id": 1,
                "text": "bohatství"
              },
              {
                "id": 2,
                "text": "chudoba"
              },
              {
                "id": 3,
                "text": "volný čas"
              },
              {
                "id": 4,
                "text": "práce"
              },
              {
                "id": 5,
                "text": "elegance"
              },
              {
                "id": 6,
                "text": "obyčejnost"
              },
              {
                "id": 7,
                "text": "ženy"
              }
            ]
          }
        ]
      }
    },
    {
      "class": ["half-slide-previous"],
      "zadani": {
        "hlavni": "Jak plakát zobrazuje šití?",
        "rozsirujici": "Prohlédněte si plakát, označte důležité body a popište je."
      },
      "napoveda": {
        "aktivity": ["svg"],
        "text": [
          "Kliknutím na snímek levým tlačítkem myši označujete bod. Nakliknutím na bod pravým tlačítkem otevřete menu s nabídkou úkonů: změnit barvu bodu, (T) doplnit textový komentář, (X) smazat nakliknutý objekt."
        ]
      },
      "svg": {
        "soubory": [
          {
            "id": "svg-2",
            "soubor": "k-cemu-slouzi-siti/pic-01-1024h.jpg",
            "funkce": ["text", "znacky"]
          }
        ]
      },
      "popisky": [
        "&bdquo;Vítězství je ve tvých rukách! Sevři svůj stisk - zapoj se do válečné práce.&ldquo; Britský plakát z doby druhé světové války. Zdroj: Imperial War Museum"
      ]
    },
    {
      "class": ["half-slide-active"],
      "zadani": {
        "hlavni": "S čím plakát spojuje šití?",
        "rozsirujici": "Vyberte maximálně tři slova, která nejlépe vystihují plakát."
      },
      "napoveda": {
        "aktivity": ["tagy"],
        "text": "Kliknutím můžete klíčové slovo přidat. Pokud po přidání kliknete na klíčové slovo, znovu ho odeberete."
      },
      "klicovaSlova": {
        "klicovaSlova": [
          {
            "id": "klicova-slova-2",
            "funkce": "selekce+",
            "tagy": [
              {
                "id": 1,
                "text": "volný čas"
              },
              {
                "id": 2,
                "text": "práce"
              },
              {
                "id": 3,
                "text": "sériová výroba"
              },
              {
                "id": 4,
                "text": "ruční práce"
              },
              {
                "id": 5,
                "text": "elegance"
              },
              {
                "id": 6,
                "text": "obyčejnost"
              },
              {
                "id": 7,
                "text": "ženy"
              },
              {
                "id": 8,
                "text": "vítězství ve válce"
              }
            ]
          }
        ]
      }
    },
    {
      "class": ["half-slide-previous"],
      "zadani": {
        "hlavni": "Jak plakát zobrazuje šití?",
        "rozsirujici": "Prohlédněte si plakát, označte důležité body a popište je."
      },
      "napoveda": {
        "aktivity": ["svg"],
        "text": [
          "Kliknutím na snímek levým tlačítkem myši označujete bod. Nakliknutím na bod pravým tlačítkem otevřete menu s nabídkou úkonů: změnit barvu bodu, (T) doplnit textový komentář, (X) smazat nakliknutý objekt."
        ]
      },
      "svg": {
        "soubory": [
          {
            "id": "svg-3",
            "soubor": "k-cemu-slouzi-siti/pic-02-1024h.jpg",
            "funkce": ["text", "znacky"]
          }
        ]
      },
      "popisky": [
        "Plakát iniciativy Sijemerousky.cz, která vznikla v souvislosti s pandemií COVID-19, 2020. Zdroj: podaneruce.cz"
      ]
    },
    {
      "class": ["half-slide-active"],
      "zadani": {
        "hlavni": "S čím plakát spojuje šití?",
        "rozsirujici": "Vyberte maximálně tři slova, která nejlépe vystihují plakát."
      },
      "napoveda": {
        "aktivity": ["tagy"],
        "text": "Kliknutím můžete klíčové slovo přidat. Pokud po přidání kliknete na klíčové slovo, znovu ho odeberete."
      },
      "klicovaSlova": {
        "klicovaSlova": [
          {
            "id": "klicova-slova-3",
            "funkce": "selekce+",
            "tagy": [
              {
                "id": 1,
                "text": "volný čas"
              },
              {
                "id": 2,
                "text": "práce"
              },
              {
                "id": 3,
                "text": "sériová výroba"
              },
              {
                "id": 4,
                "text": "ruční práce"
              },
              {
                "id": 5,
                "text": "elegance"
              },
              {
                "id": 6,
                "text": "obyčejnost"
              },
              {
                "id": 7,
                "text": "pandemie"
              },
              {
                "id": 8,
                "text": "ženy"
              }
            ]
          }
        ]
      }
    },
    {
      "class": ["half-slide-previous"],
      "zadani": {
        "hlavni": "Jak plakát zobrazuje šití?",
        "rozsirujici": "Prohlédněte si plakát, označte důležité body a popište je."
      },
      "napoveda": {
        "aktivity": ["svg"],
        "text": [
          "Kliknutím na snímek levým tlačítkem myši označujete bod. Nakliknutím na bod pravým tlačítkem otevřete menu s nabídkou úkonů: změnit barvu bodu, (T) doplnit textový komentář, (X) smazat nakliknutý objekt."
        ]
      },
      "svg": {
        "soubory": [
          {
            "id": "svg-4",
            "soubor": "k-cemu-slouzi-siti/pic-03-1024h.jpg",
            "funkce": ["text", "znacky"]
          }
        ]
      },
      "popisky": [
        "&bdquo;Vyrobeno v chudobě. Pravá cena módy.&ldquo; Plakát kampaně What she makes (Co ona dělá) australské iniciativy OXFAM. Zdroj: whatshemakes.oxfam.org.au"
      ]
    },
    {
      "class": ["half-slide-active"],
      "zadani": {
        "hlavni": "S čím plakát spojuje šití?",
        "rozsirujici": "Vyberte maximálně tři slova, která nejlépe vystihují plakát."
      },
      "napoveda": {
        "aktivity": ["tagy"],
        "text": "Kliknutím můžete klíčové slovo přidat. Pokud po přidání kliknete na klíčové slovo, znovu ho odeberete."
      },
      "klicovaSlova": {
        "klicovaSlova": [
          {
            "id": "klicova-slova-4",
            "funkce": "selekce+",
            "tagy": [
              {
                "id": 1,
                "text": "bohatství"
              },
              {
                "id": 2,
                "text": "chudoba"
              },
              {
                "id": 3,
                "text": "volný čas"
              },
              {
                "id": 4,
                "text": "práce"
              },
              {
                "id": 5,
                "text": "sériová výroba"
              },
              {
                "id": 6,
                "text": "ruční práce"
              },
              {
                "id": 7,
                "text": "ženy"
              },
              {
                "id": 8,
                "text": "nespravedlnost"
              }
            ]
          }
        ]
      }
    },
    {
      "zadani": {
        "hlavni": "K čemu slouží šití?",
        "rozsirujici": "Vyberte plakát, který vás nejvíce zaujal, a zamyslete se, v jakých souvislostech zobrazuje šicí stroj."
      },
      "napoveda": {
        "aktivity": ["vyber"],
        "text": "Výběr provedete kliknutím na položku.<br>Do boxu pro text zapisujete odpověď na otázku, nebo jiný komentář (dle zadání)."
      },
      "vyber": {
        "id": "vyber-1",
        "nastaveni": {
          "layout": "horizontalni",
          "viceOdpovedi": false,
          "disableFeedback": true
        },
        "objekty": [
          {
            "objekt": "k-cemu-slouzi-siti/pic-00-1024h.jpg"
          },
          {
            "objekt": "k-cemu-slouzi-siti/pic-01-1024h.jpg"
          },
          {
            "objekt": "k-cemu-slouzi-siti/pic-02-1024h.jpg"
          },
          {
            "objekt": "k-cemu-slouzi-siti/pic-03-1024h.jpg"
          }
        ]
      }
    },
    {
      "zadani": {
        "hlavni": "K čemu slouží šití?",
        "rozsirujici": ""
      },
      "napoveda": {
        "aktivity": ["text"],
        "text": "Do boxu pro text zapisujete odpověď na otázku, nebo jiný komentář (dle zadání)."
      },
      "uzivatelskyText": {
        "galerie": [
          {
            "typ": "vyber",
            "vyberId": "vyber-1"
          }
        ],
        "layout": "galerie",
        "otazky": [
          {
            "id": "otazka-1",
            "zadani": "Proč sis vybral/a tento plakát?",
            "instrukce": "Vysvětlete, čím vás plakát zaujal, proč jste si ho vybrali či jak na vás působí…",
            "minDelka": 20,
            "maxDelka": 999
          },
          {
            "id": "otazka-2",
            "zadani": "K čemu podle plakátu slouží šití?",
            "instrukce": "Myslím si, že…",
            "minDelka": 20,
            "maxDelka": 999
          }
        ]
      }
    }
  ]
}
